Find simple CpG (CimpleG) signatures. — CimpleG • CimpleG
…
# check results
cimpleg_result$results
#> $CELL_TYPE_MSCORFIBRO
#> $CELL_TYPE_MSCORFIBRO$train_res
#> $CELL_TYPE_MSCORFIBRO$train_res$fold_id
#> # A tibble: 4,090 × 3
#>      Row Data     Fold  
#>    <int> <chr>    <chr> 
#>  1     1 Analysis Fold01
#>  2     1 Analysis Fold02
#>  3     1 Analysis Fold03
#>  4     1 Analysis Fold04
#>  5     1 Analysis Fold05
#>  6     1 Analysis Fold06
#>  7     1 Analysis Fold07
#>  8     1 Analysis Fold09
#>  9     1 Analysis Fold10
#> 10     2 Analysis Fold01
#> # … with 4,080 more rows
…
#>  6: 0.7787303
#>  7: 0.7178212
#>  8: 0.8107477
#>  9: 0.3979287
#> 10: 0.8065877
#> 11: 0.7282899
#> 
#> $CELL_TYPE_MSCORFIBRO$elapsed_time
#> Time difference of 1.618259 secs
#> 
#> 
#> $CELL_TYPE_NEURONS
#> $CELL_TYPE_NEURONS$train_res
#> $CELL_TYPE_NEURONS$train_res$fold_id
#> # A tibble: 4,090 × 3
#>      Row Data     Fold  
#>    <int> <chr>    <chr> 
#>  1     1 Analysis Fold01
#>  2     1 Analysis Fold02
#>  3     1 Analysis Fold03
#>  4     1 Analysis Fold04
#>  5     1 Analysis Fold06
#>  6     1 Analysis Fold07
#>  7     1 Analysis Fold08
#>  8     1 Analysis Fold09
#>  9     1 Analysis Fold10
#> 10     2 Analysis Fold01
#> # … with 4,080 more rows
…
