Generate signatures • CimpleG
…
Plotting CimpleG CpG signature

We can quickly visualize how our signature is able to separate the
data.

signature_plot(
  cimpleg_result,
  train_data,
  train_targets,
  sample_id_column = "gsm",
  true_label_column = "cell_type"
)
#> $data
#> # A tibble: 818 × 5
#> # Groups:   sig_set [2]
#>    sample_id  true_label signatures value sig_set    
#>    <chr>      <chr>      <chr>      <dbl> <chr>      
#>  1 GSM1415516 adipocytes cg04785083 0.922 blood_cells
#>  2 GSM1415516 adipocytes cg02258444 0.938 hepatocytes
#>  3 GSM1415518 adipocytes cg04785083 0.932 blood_cells
#>  4 GSM1415518 adipocytes cg02258444 0.912 hepatocytes
#>  5 GSM1415520 adipocytes cg04785083 0.923 blood_cells
#>  6 GSM1415520 adipocytes cg02258444 0.907 hepatocytes
#>  7 GSM1415522 adipocytes cg04785083 0.936 blood_cells
#>  8 GSM1415522 adipocytes cg02258444 0.908 hepatocytes
#>  9 GSM1415526 adipocytes cg04785083 0.938 blood_cells
#> 10 GSM1415526 adipocytes cg02258444 0.905 hepatocytes
#> # ℹ 808 more rows
…
